{"data":[{"id":1,"image":"/uploads/20/01/29/odio-r_100x75.jpg","name":"Sed modi sunt qui. Iusto impedit quos mollitia laborum soluta.","is_active":0,"is_hide_editor":0,"title":"Quo voluptatum autem eaque occaecati non ab."},{"id":2,"image":"/uploads/20/01/29/illo-r_100x75.jpg","name":"Soluta et quam velit quasi rerum. Voluptatem aperiam ullam porro doloremque rem eos.","is_active":1,"is_hide_editor":1,"title":"Cumque quibusdam quod natus consequuntur veniam."}],"meta":{"pagination":{"total":13,"count":10,"per_page":10,"current_page":1,"total_pages":2,"links":{"next":"http://scms.loc/api/scms/content-block/content-blocks?page=2","previous":null}}},"count":13}