{"data":[{"id":1,"title":"11111111111111111111","is_active":1,"is_sitemap":1},{"id":2,"title":"11111111111111111111","is_active":1,"is_sitemap":1}],"meta":{"pagination":{"total":14,"count":10,"per_page":10,"current_page":1,"total_pages":2,"links":{"next":"http://scms.loc/api/scms/menu/menus?page=2","previous":null}}},"count":14}