{"data":[{"id":1,"name":"LS","is_active":1,"email":"ls@sunbee.studio","position":"Designer","created_at":"2020-01-15 19:54:51","updated_at":"2020-01-15 19:54:51","image":null,"name_roles":"Admin"},{"id":2,"name":"VD","is_active":1,"email":"vasyldorosh@gmail.com","position":"Backend developer","created_at":"2020-01-15 19:54:51","updated_at":"2020-01-29 17:31:33","image":"/uploads/20/01/18/zvuzv5ps-r_60x80.jpeg","name_roles":"Admin"}],"meta":{"pagination":{"total":12,"count":10,"per_page":10,"current_page":1,"total_pages":2,"links":{"next":"http://scms.loc/api/scms/user/users?page=2","previous":null}}},"count":12}