{"data":[{"id":15,"category_id":5,"category_title":"Quia voluptatum quia magni voluptas autem nobis.","image":"/uploads/20/01/18/perferendis-c_100x75.jpeg","is_active":0,"rank":446,"title":"Deleniti vel nam similique quam modi dolor et.","description":"Sint sunt sint corporis veritatis non. Illum quo doloribus rerum unde rerum. Omnis molestiae et dolor est. Similique qui quis voluptatem. Et est magni aut incidunt voluptatem sit est. Dolores consequuntur delectus animi alias."},{"id":16,"category_id":5,"category_title":"Quia voluptatum quia magni voluptas autem nobis.","image":"/uploads/20/01/18/non-c_100x75.jpeg","is_active":1,"rank":871,"title":"Dolor aliquam soluta ratione nam.","description":"Alias dolorem excepturi harum quisquam. Quis facere explicabo officiis et. Fugit esse ut unde. Qui quia deleniti quo ullam alias sed eum."}],"meta":{"pagination":{"total":22,"count":10,"per_page":10,"current_page":1,"total_pages":3,"links":{"next":"http://scms.loc/api/scms/advantage/advantages?page=2","previous":null}}},"count":22}